{
    "name": "occupation",
    "children": [
     {
      "name": "Management, professional, and related occupations",
      "children": [
       {
        "name": "Management, business, and financial operations occupations",
        "children": [
         {
          "name": "Business and financial operations occupations",
          "children": [
           {"name": "Agents and business managers of artists, performers, and athletes", "ID": "1.1.2.1", "size":52},
           {"name": "Buyers and purchasing agents, farm products", "ID": "1.1.2.2", "size":15},
           {"name": "Wholesale and retail buyers, except farm products", "ID": "1.1.2.3", "size":216},
           {"name": "Purchasing agents, except wholesale, retail, and farm products", "ID": "1.1.2.4", "size":271},
           {"name": "Claims adjusters, appraisers, examiners, and investigators", "ID": "1.1.2.5", "size":311},
           {"name": "Compliance officers", "ID": "1.1.2.6", "size":239},
           {"name": "Cost estimators", "ID": "1.1.2.7", "size":105},
           {"name": "Human resources workers", "ID": "1.1.2.8", "size":615},
           {"name": "Compensation, benefits, and job analysis specialists", "ID": "1.1.2.9", "size":71},
           {"name": "Training and development specialists", "ID": "1.1.2.10", "size":128},
           {"name": "Logisticians", "ID": "1.1.2.11", "size":100},
           {"name": "Management analysts", "ID": "1.1.2.12", "size":850},
           {"name": "Meeting, convention, and event planners", "ID": "1.1.2.13", "size":156},
           {"name": "Fundraisers", "ID": "1.1.2.14", "size":92},
           {"name": "Market research analysts and marketing specialists", "ID": "1.1.2.15", "size":284},
           {"name": "Business operations specialists, all other", "ID": "1.1.2.16", "size":194},
           {"name": "Accountants and auditors", "ID": "1.1.2.17", "size":1724},
           {"name": "Appraisers and assessors of real estate", "ID": "1.1.2.18", "size":95},
           {"name": "Budget analysts", "ID": "1.1.2.19", "size":48},
           {"name": "Credit analysts", "ID": "1.1.2.20", "size":28},
           {"name": "Financial analysts", "ID": "1.1.2.21", "size":261},
           {"name": "Personal financial advisors", "ID": "1.1.2.22", "size":434},
           {"name": "Insurance underwriters", "ID": "1.1.2.23", "size":113},
           {"name": "Financial examiners", "ID": "1.1.2.24", "size":16},
           {"name": "Credit counselors and loan officers", "ID": "1.1.2.25", "size":288},
           {"name": "Tax examiners and collectors, and revenue agents", "ID": "1.1.2.26", "size":70},
           {"name": "Tax preparers", "ID": "1.1.2.27", "size":103},
           {"name": "Financial specialists, all other", "ID": "1.1.2.28", "size":93},
           {"name": "Engineering technicians, except drafters", "ID": "1.2.2.20", "size":369},
           {"name": "Surveying and mapping technicians", "ID": "1.2.2.21", "size":77}
          ]
         },
         {
          "name": "Management occupations",
          "children": [
           {"name": "Chief executives", "ID": "1.1.1.1", "size":1603},
           {"name": "General and operations managers", "ID": "1.1.1.2", "size":887},
           {"name": "Legislators", "ID": "1.1.1.3", "size":17},
           {"name": "Advertising and promotions managers", "ID": "1.1.1.4", "size":52},
           {"name": "Marketing and sales managers", "ID": "1.1.1.5", "size":917},
           {"name": "Public relations and fundraising managers", "ID": "1.1.1.6", "size":71},
           {"name": "Administrative services managers", "ID": "1.1.1.7", "size":134},
           {"name": "Computer and information systems managers", "ID": "1.1.1.8", "size":629},
           {"name": "Financial managers", "ID": "1.1.1.9", "size":1194},
           {"name": "Compensation and benefits managers", "ID": "1.1.1.10", "size":17},
           {"name": "Human resources managers", "ID": "1.1.1.11", "size":236},
           {"name": "Training and development managers", "ID": "1.1.1.12", "size":38},
           {"name": "Industrial production managers", "ID": "1.1.1.13", "size":273},
           {"name": "Purchasing managers", "ID": "1.1.1.14", "size":193},
           {"name": "Transportation, storage, and distribution managers", "ID": "1.1.1.15", "size":260},
           {"name": "Farmers, ranchers, and other agricultural managers", "ID": "1.1.1.16", "size":941},
           {"name": "Construction managers", "ID": "1.1.1.17", "size":711},
           {"name": "Education administrators", "ID": "1.1.1.18", "size":838},
           {"name": "Architectural and engineering managers", "ID": "1.1.1.19", "size":122},
           {"name": "Food service managers", "ID": "1.1.1.20", "size":1113},
           {"name": "Funeral service managers", "ID": "1.1.1.21", "size":13},
           {"name": "Gaming managers", "ID": "1.1.1.22", "size":28},
           {"name": "Lodging managers", "ID": "1.1.1.23", "size":146},
           {"name": "Medical and health services managers", "ID": "1.1.1.24", "size":593},
           {"name": "Natural sciences managers", "ID": "1.1.1.25", "size":18},
           {"name": "Postmasters and mail superintendents", "ID": "1.1.1.26", "size":33},
           {"name": "Property, real estate, and community association managers", "ID": "1.1.1.27", "size":674},
           {"name": "Social and community service managers", "ID": "1.1.1.28", "size":362},
           {"name": "Emergency management directors", "ID": "1.1.1.29", "size":8},
           {"name": "Managers, all other", "ID": "1.1.1.30", "size":4075}
          ]
         }
        ]
       },
       {
        "name": "Professional and related occupations",
        "children": [
         {
          "name": "Architecture and engineering occupations",
          "children": [
           {"name": "Architects, except naval", "ID": "1.2.2.1", "size":178},
           {"name": "Surveyors, cartographers, and photogrammetrists", "ID": "1.2.2.2", "size":41},
           {"name": "Aerospace engineers", "ID": "1.2.2.3", "size":147},
           {"name": "Agricultural engineers", "ID": "1.2.2.4", "size":4},
           {"name": "Biomedical engineers", "ID": "1.2.2.5", "size":14},
           {"name": "Chemical engineers", "ID": "1.2.2.6", "size":79},
           {"name": "Civil engineers", "ID": "1.2.2.7", "size":349},
           {"name": "Computer hardware engineers", "ID": "1.2.2.8", "size":84},
           {"name": "Electrical and electronics engineers", "ID": "1.2.2.9", "size":271},
           {"name": "Environmental engineers", "ID": "1.2.2.10", "size":42},
           {"name": "Industrial engineers, including health and safety", "ID": "1.2.2.11", "size":194},
           {"name": "Marine engineers and naval architects", "ID": "1.2.2.12", "size":9},
           {"name": "Materials engineers", "ID": "1.2.2.13", "size":35},
           {"name": "Mechanical engineers", "ID": "1.2.2.14", "size":303},
           {"name": "Mining and geological engineers, including mining safety engineers", "ID": "1.2.2.15", "size":15},
           {"name": "Nuclear engineers", "ID": "1.2.2.16", "size":5},
           {"name": "Petroleum engineers", "ID": "1.2.2.17", "size":37},
           {"name": "Engineers, all other", "ID": "1.2.2.18", "size":406},
           {"name": "Drafters", "ID": "1.2.2.19", "size":138},
           {"name": "Engineering technicians, except drafters", "ID": "1.2.2.20", "size":369},
           {"name": "Surveying and mapping technicians", "ID": "1.2.2.21", "size":77}
          ]
         },
         {
          "name": "Arts, design, entertainment, sports, and media occupations",
          "children": [
           {"name": "Artists and related workers", "ID": "1.2.7.1", "size":203},
           {"name": "Designers", "ID": "1.2.7.2", "size":830},
           {"name": "Actors", "ID": "1.2.7.3", "size":43},
           {"name": "Producers and directors", "ID": "1.2.7.4", "size":161},
           {"name": "Athletes, coaches, umpires, and related workers", "ID": "1.2.7.5", "size":294},
           {"name": "Dancers and choreographers", "ID": "1.2.7.6", "size":18},
           {"name": "Musicians, singers, and related workers", "ID": "1.2.7.7", "size":194},
           {"name": "Entertainers and performers, sports and related workers, all other", "ID": "1.2.7.8", "size":38},
           {"name": "Announcers", "ID": "1.2.7.9", "size":60},
           {"name": "News analysts, reporters and correspondents", "ID": "1.2.7.10", "size":80},
           {"name": "Public relations specialists", "ID": "1.2.7.11", "size":136},
           {"name": "Editors", "ID": "1.2.7.12", "size":163},
           {"name": "Technical writers", "ID": "1.2.7.13", "size":61},
           {"name": "Writers and authors", "ID": "1.2.7.14", "size":221},
           {"name": "Miscellaneous media and communication workers", "ID": "1.2.7.15", "size":78},
           {"name": "Broadcast and sound engineering technicians and radio operators", "ID": "1.2.7.16", "size":108},
           {"name": "Photographers", "ID": "1.2.7.17", "size":174},
           {"name": "Television, video, and motion picture camera operators and editors", "ID": "1.2.7.18", "size":72},
           {"name": "Media and communication equipment workers, all other", "ID": "1.2.7.19", "size":0}
          ]
         },
         {
          "name": "Community and social service occupations",
          "children": [
           {"name": "Counselors", "ID": "1.2.4.1", "size":737},
           {"name": "Social workers", "ID": "1.2.4.2", "size":799},
           {"name": "Probation officers and correctional treatment specialists", "ID": "1.2.4.3", "size":100},
           {"name": "Social and human service assistants", "ID": "1.2.4.4", "size":180},
           {"name": "Miscellaneous community and social service specialists, including health educators and community health workers", "ID": "1.2.4.5", "size":114},
           {"name": "Clergy", "ID": "1.2.4.6", "size":433},
           {"name": "Directors, religious activities and education", "ID": "1.2.4.7", "size":64},
           {"name": "Religious workers, all other", "ID": "1.2.4.8", "size":68}
          ]
         },
         {
          "name": "Computer and mathematical occupations",
          "children": [
           {"name": "Computer and information research scientists", "ID": "1.2.1.1", "size":29},
           {"name": "Computer systems analysts", "ID": "1.2.1.2", "size":511},
           {"name": "Information security analysts", "ID": "1.2.1.3", "size":68},
           {"name": "Computer programmers", "ID": "1.2.1.4", "size":509},
           {"name": "Software developers, applications and systems software", "ID": "1.2.1.5", "size":1235},
           {"name": "Web developers", "ID": "1.2.1.6", "size":220},
           {"name": "Computer support specialists", "ID": "1.2.1.7", "size":524},
           {"name": "Database administrators", "ID": "1.2.1.8", "size":108},
           {"name": "Network and computer systems administrators", "ID": "1.2.1.9", "size":205},
           {"name": "Computer network architects", "ID": "1.2.1.10", "size":123},
           {"name": "Computer occupations, all other", "ID": "1.2.1.11", "size":512},
           {"name": "Actuaries", "ID": "1.2.1.12", "size":28},
           {"name": "Mathematicians", "ID": "1.2.1.13", "size":3},
           {"name": "Operations research analysts", "ID": "1.2.1.14", "size":138},
           {"name": "Statisticians", "ID": "1.2.1.15", "size":85},
           {"name": "Miscellaneous mathematical science occupations", "ID": "1.2.1.16", "size":5}
          ]
         },
         {
          "name": "Education, training, and library occupations",
          "children": [
           {"name": "Postsecondary teachers", "ID": "1.2.6.1", "size":1259},
           {"name": "Preschool and kindergarten teachers", "ID": "1.2.6.2", "size":664},
           {"name": "Elementary and middle school teachers", "ID": "1.2.6.3", "size":3102},
           {"name": "Secondary school teachers", "ID": "1.2.6.4", "size":1099},
           {"name": "Special education teachers", "ID": "1.2.6.5", "size":336},
           {"name": "Other teachers and instructors", "ID": "1.2.6.6", "size":836},
           {"name": "Archivists, curators, and museum technicians", "ID": "1.2.6.7", "size":47},
           {"name": "Librarians", "ID": "1.2.6.8", "size":198},
           {"name": "Library technicians", "ID": "1.2.6.9", "size":36},
           {"name": "Teacher assistants", "ID": "1.2.6.10", "size":904},
           {"name": "Other education, training, and library workers", "ID": "1.2.6.11", "size":206}
          ]
         },
         {
          "name": "Healthcare practitioners and technical occupations",
          "children": [
           {"name": "Chiropractors", "ID": "1.2.8.1", "size":66},
           {"name": "Dentists", "ID": "1.2.8.2", "size":192},
           {"name": "Dietitians and nutritionists", "ID": "1.2.8.3", "size":123},
           {"name": "Optometrists", "ID": "1.2.8.4", "size":48},
           {"name": "Pharmacists", "ID": "1.2.8.5", "size":293},
           {"name": "Physicians and surgeons", "ID": "1.2.8.6", "size":1014},
           {"name": "Physician assistants", "ID": "1.2.8.7", "size":84},
           {"name": "Podiatrists", "ID": "1.2.8.8", "size":8},
           {"name": "Audiologists", "ID": "1.2.8.9", "size":20},
           {"name": "Occupational therapists", "ID": "1.2.8.10", "size":111},
           {"name": "Physical therapists", "ID": "1.2.8.11", "size":244},
           {"name": "Radiation therapists", "ID": "1.2.8.12", "size":17},
           {"name": "Recreational therapists", "ID": "1.2.8.13", "size":10},
           {"name": "Respiratory therapists", "ID": "1.2.8.14", "size":112},
           {"name": "Speech-language pathologists", "ID": "1.2.8.15", "size":137},
           {"name": "Exercise physiologists", "ID": "1.2.8.16", "size":5},
           {"name": "Therapists, all other", "ID": "1.2.8.17", "size":186},
           {"name": "Veterinarians", "ID": "1.2.8.18", "size":81},
           {"name": "Registered nurses", "ID": "1.2.8.19", "size":2888},
           {"name": "Nurse anesthetists", "ID": "1.2.8.20", "size":30},
           {"name": "Nurse midwives", "ID": "1.2.8.21", "size":4},
           {"name": "Nurse practitioners", "ID": "1.2.8.22", "size":128},
           {"name": "Health diagnosing and treating practitioners, all other", "ID": "1.2.8.23", "size":24},
           {"name": "Clinical laboratory technologists and technicians", "ID": "1.2.8.24", "size":293},
           {"name": "Dental hygienists", "ID": "1.2.8.25", "size":175},
           {"name": "Diagnostic related technologists and technicians", "ID": "1.2.8.26", "size":331},
           {"name": "Emergency medical technicians and paramedics", "ID": "1.2.8.27", "size":232},
           {"name": "Health practitioner support technologists and technicians", "ID": "1.2.8.28", "size":583},
           {"name": "Licensed practical and licensed vocational nurses", "ID": "1.2.8.29", "size":641},
           {"name": "Medical records and health information technicians", "ID": "1.2.8.30", "size":138},
           {"name": "Opticians, dispensing", "ID": "1.2.8.31", "size":46},
           {"name": "Miscellaneous health technologists and technicians", "ID": "1.2.8.32", "size":123},
           {"name": "Other healthcare practitioners and technical occupations", "ID": "1.2.8.33", "size":108}
          ]
         },
         {
          "name": "Legal occupations",
          "children": [
           {"name": "Lawyers", "ID": "1.2.5.1", "size":1132},
           {"name": "Judicial law clerks", "ID": "1.2.5.2", "size":12},
           {"name": "Judges, magistrates, and other judicial workers", "ID": "1.2.5.3", "size":53},
           {"name": "Paralegals and legal assistants", "ID": "1.2.5.4", "size":417},
           {"name": "Miscellaneous legal support workers", "ID": "1.2.5.5", "size":200}
          ]
         },
         {
          "name": "Life, physical, and social science occupations",
          "children": [
           {"name": "Agricultural and food scientists", "ID": "1.2.3.1", "size":31},
           {"name": "Biological scientists", "ID": "1.2.3.2", "size":110},
           {"name": "Conservation scientists and foresters", "ID": "1.2.3.3", "size":27},
           {"name": "Medical scientists", "ID": "1.2.3.4", "size":143},
           {"name": "Life scientists, all other", "ID": "1.2.3.5", "size":0},
           {"name": "Astronomers and physicists", "ID": "1.2.3.6", "size":12},
           {"name": "Atmospheric and space scientists", "ID": "1.2.3.7", "size":7},
           {"name": "Chemists and materials scientists", "ID": "1.2.3.8", "size":102},
           {"name": "Environmental scientists and geoscientists", "ID": "1.2.3.9", "size":91},
           {"name": "Physical scientists, all other", "ID": "1.2.3.10", "size":183},
           {"name": "Economists", "ID": "1.2.3.11", "size":33},
           {"name": "Survey researchers", "ID": "1.2.3.12", "size":4},
           {"name": "Psychologists", "ID": "1.2.3.13", "size":232},
           {"name": "Sociologists", "ID": "1.2.3.14", "size":3},
           {"name": "Urban and regional planners", "ID": "1.2.3.15", "size":24},
           {"name": "Miscellaneous social scientists and related workers", "ID": "1.2.3.16", "size":42},
           {"name": "Agricultural and food science technicians", "ID": "1.2.3.17", "size":39},
           {"name": "Biological technicians", "ID": "1.2.3.18", "size":25},
           {"name": "Chemical technicians", "ID": "1.2.3.19", "size":71},
           {"name": "Geological and petroleum technicians", "ID": "1.2.3.20", "size":20},
           {"name": "Nuclear technicians", "ID": "1.2.3.21", "size":6},
           {"name": "Social science research assistants", "ID": "1.2.3.22", "size":2},
           {"name": "Miscellaneous life, physical, and social science technicians", "ID": "1.2.3.23", "size":149}
          ]
         }
        ]
       },
       {
        "name": "Service occupations",
        "children": [
         {
          "name": "Personal care and service occupations",
          "children": [
           {"name": "First-line supervisors of gaming workers", "ID": "2.5.1", "size":151},
           {"name": "First-line supervisors of personal service workers", "ID": "2.5.2", "size":202},
           {"name": "Animal trainers", "ID": "2.5.3", "size":41},
           {"name": "Nonfarm animal caretakers", "ID": "2.5.4", "size":201},
           {"name": "Gaming services workers", "ID": "2.5.5", "size":99},
           {"name": "Motion picture projectionists", "ID": "2.5.6", "size":4},
           {"name": "Ushers, lobby attendants, and ticket takers", "ID": "2.5.7", "size":54},
           {"name": "Miscellaneous entertainment attendants and related workers", "ID": "2.5.8", "size":189},
           {"name": "Embalmers and funeral attendants", "ID": "2.5.9", "size":13},
           {"name": "Morticians, undertakers, and funeral directors", "ID": "2.5.10", "size":29},
           {"name": "Barbers", "ID": "2.5.11", "size":110},
           {"name": "Hairdressers, hairstylists, and cosmetologists", "ID": "2.5.12", "size":760},
           {"name": "Miscellaneous personal appearance workers", "ID": "2.5.13", "size":296},
           {"name": "Baggage porters, bellhops, and concierges", "ID": "2.5.14", "size":85},
           {"name": "Tour and travel guides", "ID": "2.5.15", "size":54},
           {"name": "Childcare workers", "ID": "2.5.16", "size":1218},
           {"name": "Personal care aides", "ID": "2.5.17", "size":1254},
           {"name": "Recreation and fitness workers", "ID": "2.5.18", "size":404},
           {"name": "Residential advisors", "ID": "2.5.19", "size":43},
           {"name": "Personal care and service workers, all other", "ID": "2.5.20", "size":131},
           {"name": "Data entry keyers", "ID": "3.2.43", "size":292},
           {"name": "Word processors and typists", "ID": "3.2.44", "size":101},
           {"name": "Desktop publishers", "ID": "3.2.45", "size":2},
           {"name": "Insurance claims and policy processing clerks", "ID": "3.2.46", "size":288},
           {"name": "Mail clerks and mail machine operators, except postal service", "ID": "3.2.47", "size":79},
           {"name": "Office clerks, general", "ID": "3.2.48", "size":1230},
           {"name": "Office machine operators, except computer", "ID": "3.2.49", "size":39},
           {"name": "Proofreaders and copy markers", "ID": "3.2.50", "size":10},
           {"name": "Statistical assistants", "ID": "3.2.51", "size":23},
           {"name": "Office and administrative support workers, all other", "ID": "3.2.52", "size":497}
          ]
         },
         {
            "name": "Office and administrative support occupations",
            "children": [
             {"name": "First-line supervisors of office and administrative support workers", "ID": "3.2.1", "size":1351},
             {"name": "Switchboard operators, including answering service", "ID": "3.2.2", "size":19},
             {"name": "Telephone operators", "ID": "3.2.3", "size":33},
             {"name": "Communications equipment operators, all other", "ID": "3.2.4", "size":9},
             {"name": "Bill and account collectors", "ID": "3.2.5", "size":165},
             {"name": "Billing and posting clerks", "ID": "3.2.6", "size":507},
             {"name": "Bookkeeping, accounting, and auditing clerks", "ID": "3.2.7", "size":1231},
             {"name": "Gaming cage workers", "ID": "3.2.8", "size":14},
             {"name": "Payroll and timekeeping clerks", "ID": "3.2.9", "size":146},
             {"name": "Procurement clerks", "ID": "3.2.10", "size":31},
             {"name": "Tellers", "ID": "3.2.11", "size":361},
             {"name": "Financial clerks, all other", "ID": "3.2.12", "size":65},
             {"name": "Brokerage clerks", "ID": "3.2.13", "size":5},
             {"name": "Correspondence clerks", "ID": "3.2.14", "size":6},
             {"name": "Court, municipal, and license clerks", "ID": "3.2.15", "size":69},
             {"name": "Credit authorizers, checkers, and clerks", "ID": "3.2.16", "size":44},
             {"name": "Customer service representatives", "ID": "3.2.17", "size":2086},
             {"name": "Eligibility interviewers, government programs", "ID": "3.2.18", "size":70},
             {"name": "File clerks", "ID": "3.2.19", "size":226},
             {"name": "Hotel, motel, and resort desk clerks", "ID": "3.2.20", "size":120},
             {"name": "Interviewers, except eligibility and loan", "ID": "3.2.21", "size":160},
             {"name": "Library assistants, clerical", "ID": "3.2.22", "size":98},
             {"name": "Loan interviewers and clerks", "ID": "3.2.23", "size":143},
             {"name": "New accounts clerks", "ID": "3.2.24", "size":27},
             {"name": "Order clerks", "ID": "3.2.25", "size":104},
             {"name": "Human resources assistants, except payroll and timekeeping", "ID": "3.2.26", "size":101},
             {"name": "Receptionists and information clerks", "ID": "3.2.27", "size":1301},
             {"name": "Reservation and transportation ticket agents and travel clerks", "ID": "3.2.28", "size":94},
             {"name": "Information and record clerks, all other", "ID": "3.2.29", "size":95}
            ]
           }
        ]
       }
      ]
     }
    ] 
   }
